…
myStocks_returns_monthly %>% 
  group_by(symbol) %>% 
  summarise(std_dev= sd(monthly_returns)) %>% 
  arrange (desc(std_dev))

## # A tibble: 32 × 2
##    symbol std_dev
##    <chr>    <dbl>
##  1 ^VIX    0.231 
##  2 AAPL    0.115 
##  3 CRM     0.110 
##  4 DOW     0.109 
##  5 CSCO    0.0962
##  6 INTC    0.0955
##  7 GS      0.0926
##  8 BA      0.0925
##  9 AXP     0.0920
## 10 CAT     0.0898
## # … with 22 more rows
…
